homework5
…
?corruptDF

The CPI2017 represents “The Corruption Perceptions Index score for 2017” and captures how “corrupted” a country is on a 0-100 scale, 0 being highly corrupt and 100 being the complete opposite.

The HDI2017 represents “The human development index score for 2017” and captures the measure of achievement of human development across different countries. Factors that contribute to this score are education, longevity, and income.

Question 3

corruptDF

# A tibble: 174 × 7
   country     region          countryCode regionCode population CPI2017 HDI2017
   <chr>       <chr>           <chr>       <chr>           <int>   <int>   <dbl>
 1 Afghanistan Asia Pacific    AFG         AP           35530081      15   0.498
 2 Albania     East EU Cemt A… ALB         ECA           2873457      38   0.785
 3 Algeria     MENA            DZA         MENA         41318142      33   0.754
 4 Angola      SSA             AGO         SSA          29784193      19   0.581
 5 Argentina   Americas        ARG         AME          44271041      39   0.825
 6 Armenia     East EU Cemt A… ARM         ECA           2930450      35   0.755
 7 Australia   Asia Pacific    AUS         AP           24598933      77   0.939
 8 Austria     EU W. Europe    AUT         WE/EU         8809212      75   0.908
 9 Azerbaijan  East EU Cemt A… AZE         ECA           9862429      31   0.757
10 Bahamas     Americas        BHS         AME            395361      65   0.807
# ℹ 164 more rows
…
