inclasspractice
…
beauty_pop <- evals |>
  rename(bty = bty_avg,
         sex = gender)
beauty_pop

# A tibble: 463 × 14
      ID prof_ID score   age   bty sex    ethnicity    language rank  pic_outfit
   <int>   <int> <dbl> <int> <dbl> <fct>  <fct>        <fct>    <fct> <fct>     
 1     1       1   4.7    36  5    female minority     english  tenu… not formal
 2     2       1   4.1    36  5    female minority     english  tenu… not formal
 3     3       1   3.9    36  5    female minority     english  tenu… not formal
 4     4       1   4.8    36  5    female minority     english  tenu… not formal
 5     5       2   4.6    59  3    male   not minority english  tenu… not formal
 6     6       2   4.3    59  3    male   not minority english  tenu… not formal
 7     7       2   2.8    59  3    male   not minority english  tenu… not formal
 8     8       3   4.1    51  3.33 male   not minority english  tenu… not formal
 9     9       3   3.4    51  3.33 male   not minority english  tenu… not formal
10    10       4   4.5    40  3.17 female not minority english  tenu… not formal
# ℹ 453 more rows
# ℹ 4 more variables: pic_color <fct>, cls_did_eval <int>, cls_students <int>,
#   cls_level <fct>

library(skimr)
beauty_pop

# A tibble: 463 × 14
      ID prof_ID score   age   bty sex    ethnicity    language rank  pic_outfit
   <int>   <int> <dbl> <int> <dbl> <fct>  <fct>        <fct>    <fct> <fct>     
 1     1       1   4.7    36  5    female minority     english  tenu… not formal
 2     2       1   4.1    36  5    female minority     english  tenu… not formal
 3     3       1   3.9    36  5    female minority     english  tenu… not formal
 4     4       1   4.8    36  5    female minority     english  tenu… not formal
 5     5       2   4.6    59  3    male   not minority english  tenu… not formal
 6     6       2   4.3    59  3    male   not minority english  tenu… not formal
 7     7       2   2.8    59  3    male   not minority english  tenu… not formal
 8     8       3   4.1    51  3.33 male   not minority english  tenu… not formal
 9     9       3   3.4    51  3.33 male   not minority english  tenu… not formal
10    10       4   4.5    40  3.17 female not minority english  tenu… not formal
# ℹ 453 more rows
# ℹ 4 more variables: pic_color <fct>, cls_did_eval <int>, cls_students <int>,
#   cls_level <fct>
…
