md 08
…
This first method gives me a 95% percentile-based confidence interval of (0.41 and 0.61).

Bootstrapping Second Way

secondway_boot <- poll |> 
  specify(response = vote_gop) |>   
  generate(reps = 1000) |> 
  calculate(stat = "mean")  

Setting `type = "bootstrap"` in `generate()`.

print(secondway_boot)

Response: vote_gop (numeric)
# A tibble: 1,000 × 2
   replicate  stat
       <int> <dbl>
 1         1 0.523
 2         2 0.509
 3         3 0.513
 4         4 0.508
 5         5 0.5  
 6         6 0.527
 7         7 0.508
 8         8 0.51 
 9         9 0.528
10        10 0.481
# ℹ 990 more rows
…
