hw.5.md
…
twitch_data <- clean_names(twitch_data)

# Inspect new names
colnames(twitch_data)

 [1] "channel"             "watch_time_minutes"  "stream_time_minutes"
 [4] "peak_viewers"        "average_viewers"     "followers"          
 [7] "followers_gained"    "views_gained"        "partnered"          
[10] "mature"              "language"           

view_follow <- twitch_data |>
  select(channel, followers, average_viewers)
view_follow

# A tibble: 1,000 × 3
   channel    followers average_viewers
   <chr>          <dbl>           <dbl>
 1 xQcOW        3246298           27716
 2 summit1g     5310163           25610
 3 Gaules       1767635           10976
 4 ESL_CSGO     3944850            7714
 5 Tfue         8938903           29602
 6 Asmongold    1563438           42414
 7 NICKMERCS    4074287           24181
 8 Fextralife    508816           18985
 9 loltyler1    3530767           22381
10 Anomaly      2607076           12377
# ℹ 990 more rows
…
Looking at the residual plot, we can see that model is an appropriate fit. Seeing that the points have no pattern and that they all center around 0 residual, there is little difference between the averages. However, there are some outliers that range from -1 to 1.5.

Question 4

language_viewer <- twitch_data |>
  select(channel, language, average_viewers)

language_viewer

# A tibble: 1,000 × 3
   channel    language   average_viewers
   <chr>      <chr>                <dbl>
 1 xQcOW      English              27716
 2 summit1g   English              25610
 3 Gaules     Portuguese           10976
 4 ESL_CSGO   English               7714
 5 Tfue       English              29602
 6 Asmongold  English              42414
 7 NICKMERCS  English              24181
 8 Fextralife English              18985
 9 loltyler1  English              22381
10 Anomaly    English              12377
# ℹ 990 more rows
…
Using the two graphs above, we can clearly see that the English language has the most channels, as expected in your prediction.

Question 5

fit2 <- lm(average_viewers ~ language,
           data = language_viewer)

broom::tidy(fit2)

# A tibble: 21 × 5
   term              estimate std.error statistic p.value
   <chr>                <dbl>     <dbl>     <dbl>   <dbl>
 1 (Intercept)          5682.     3788.     1.50    0.134
 2 languageChinese     -2257.     4092.    -0.552   0.581
 3 languageCzech       -3855.     5129.    -0.751   0.453
 4 languageEnglish      -569.     3808.    -0.150   0.881
 5 languageFinnish     -4655.     9279.    -0.502   0.616
 6 languageFrench      -2176.     3929.    -0.554   0.580
 7 languageGerman      -1404.     3977.    -0.353   0.724
 8 languageGreek       -3721.     9279.    -0.401   0.688
 9 languageHungarian   -3542.     7087.    -0.500   0.617
10 languageItalian     -3477.     4310.    -0.807   0.420
# ℹ 11 more rows
…
