Final Project
…
Tackles

Interceptions

Unfortunately, due to my project’s goal and limitations, we will be removing goalkeepers from the data-set, as they will have low values in the different variables for success and ultimately will have a low score on the success metric. Let’s filter out the goalkeeper position.

Success Metric

Now we can begin making the success metric.

It’s also important that I provide the log of the success metric to provide a more “normalized” distribution and prevent the skewness of a measurement variable.

Now we can compare the difference between the success metric and the “log-success” metric.

# A tibble: 423 × 1
   success_metric
            <dbl>
 1            447
 2             35
 3            115
 4            104
 5            403
 6            513
 7            604
 8            197
 9              5
10            323
# ℹ 413 more rows

# A tibble: 423 × 1
   logsuccess_metric
               <dbl>
 1              6.10
 2              3.56
 3              4.74
 4              4.64
 5              6.00
 6              6.24
 7              6.40
 8              5.28
 9              1.61
10              5.78
# ℹ 413 more rows

Now, we are able to see every player’s (except goalkeepers) score on my success metric. Now, let’s view it by Name, Club, Position, and Age and graph both the base and log relationships.

# A tibble: 423 × 5
   success_metric Name               Club                     Position     Age
            <dbl> <chr>              <chr>                    <chr>      <dbl>
 1             10 Jarrad Branthwaite Everton                  Defender      18
 2             37 Mason Greenwood    Manchester-United        Forward       18
 3             54 Bukayo Saka        Arsenal                  Midfielder    19
 4             26 Gabriel Martinelli Arsenal                  Forward       19
 5             37 Tariq Lamptey      Brighton-and-Hove-Albion Defender      19
 6              8 Billy Gilmour      Chelsea                  Midfielder    19
 7             33 Callum Hudson-Odoi Chelsea                  Forward       19
 8             20 Anthony Gordon     Everton                  Forward       19
 9              5 Luke Thomas        Leicester-City           Defender      19
10             14 Neco Williams      Liverpool                Defender      19
# ℹ 413 more rows
…
# A tibble: 423 × 5
   logsuccess_metric Name               Club                     Position    Age
               <dbl> <chr>              <chr>                    <chr>     <dbl>
 1              2.30 Jarrad Branthwaite Everton                  Defender     18
 2              3.61 Mason Greenwood    Manchester-United        Forward      18
 3              3.99 Bukayo Saka        Arsenal                  Midfield…    19
 4              3.26 Gabriel Martinelli Arsenal                  Forward      19
 5              3.61 Tariq Lamptey      Brighton-and-Hove-Albion Defender     19
 6              2.08 Billy Gilmour      Chelsea                  Midfield…    19
 7              3.50 Callum Hudson-Odoi Chelsea                  Forward      19
 8              3.00 Anthony Gordon     Everton                  Forward      19
 9              1.61 Luke Thomas        Leicester-City           Defender     19
10              2.64 Neco Williams      Liverpool                Defender     19
# ℹ 413 more rows
…
Looking at the two graphs, we can clearly see that Logarithmic Success Metric histogram provides a more appealing display of the relationship between age and success. This is due to its more normalized shape.

Defenders

Let’s look at only defenders and their success metric scores.

# A tibble: 154 × 5
   logsuccess_metric Name               Club                     Position   Age
               <dbl> <chr>              <chr>                    <chr>    <dbl>
 1             2.30  Jarrad Branthwaite Everton                  Defender    18
 2             3.61  Tariq Lamptey      Brighton-and-Hove-Albion Defender    19
 3             1.61  Luke Thomas        Leicester-City           Defender    19
 4             2.64  Neco Williams      Liverpool                Defender    19
 5             3.18  Eric García        Manchester-City          Defender    19
 6             4.29  Reece James        Chelsea                  Defender    20
 7             3.64  Brandon Williams   Manchester-United        Defender    20
 8             0.693 Ethan Ampadu       Sheffield-United         Defender    20
 9             0.693 Jake Vokins        Southampton              Defender    20
10             2.56  Ben Johnson        West-Ham-United          Defender    20
# ℹ 144 more rows
…
4.82
1.59
0.69
7.21

Out of the defenders, the average or mean of the success metric is 4.82, with a standard deviation of 1.59. The lowest value was 0 and the highest score was 7.21.

Midfielders

Let’s look at only midfielders and their success metric scores.

# A tibble: 173 × 5
   logsuccess_metric Name              Club              Position     Age
               <dbl> <chr>             <chr>             <chr>      <dbl>
 1             3.99  Bukayo Saka       Arsenal           Midfielder    19
 2             2.08  Billy Gilmour     Chelsea           Midfielder    19
 3             1.95  Curtis Jones      Liverpool         Midfielder    19
 4             0.693 Emile Smith Rowe  Arsenal           Midfielder    20
 5             4.96  Dwight McNeil     Burnley           Midfielder    20
 6             0     Jamie Shackleton  Leeds-United      Midfielder    20
 7             3.81  Phil Foden        Manchester-City   Midfielder    20
 8             2.30  Matthew Longstaff Newcastle-United  Midfielder    20
 9             2.89  William Smallbone Southampton       Midfielder    20
10             4.08  Ryan Sessegnon    Tottenham-Hotspur Midfielder    20
# ℹ 163 more rows
…
4.45
1.7
0
7.32

Out of the midfielders, the mean or average of the success metric was 4.45 with a standard deviation of 1.7. The lowest value was 0 and the highest value was 7.32.

Forwards

Let’s look at only forwards and their success metric scores.

# A tibble: 96 × 5
   logsuccess_metric Name               Club                     Position   Age
               <dbl> <chr>              <chr>                    <chr>    <dbl>
 1              3.61 Mason Greenwood    Manchester-United        Forward     18
 2              3.26 Gabriel Martinelli Arsenal                  Forward     19
 3              3.50 Callum Hudson-Odoi Chelsea                  Forward     19
 4              3.00 Anthony Gordon     Everton                  Forward     19
 5              3.09 Reiss Nelson       Arsenal                  Forward     20
 6              2.56 Aaron Connolly     Brighton-and-Hove-Albion Forward     20
 7              2.71 Moise Kean         Everton                  Forward     20
 8              1.39 Ben Woodburn       Liverpool                Forward     20
 9              3.09 Michael Obafemi    Southampton              Forward     20
10              3.30 Pedro Neto         Wolverhampton-Wanderers  Forward     20
# ℹ 86 more rows
…
